16233 42997
13581 31930
41983 32117
35170 19566
2637 3465
37654 20319
10481 43393
13615 4446
33589 49415
34069 2468
35608 34235
34873 10514
5760 18516
20056 32112
32569 29075
8007 26831
14660 10521
3518 4410
25307 39982
39009 49120
42463 35003
29217 25606
36027 26138
2906 3650
3561 13559
30558 39935
25504 29449
45699 13658
25555 2787
30563 18825
13696 38927
15042 39931
26138 12276
18079 9683
3767 16177
714 122
40984 7401
4740 38534
14311 5977
8174 4228
10004 35029
24539 2116
40010 48972
10234 44757
10981 8973
35889 14504
49121 39521
36500 42033
28249 49725
44267 18339
47634 33714
18848 22901
30984 49177
8895 25700
29989 46585
44623 34338
1045 47198
34438 22360
23212 10146
27553 1821
8056 36922
45204 44817
18352 17289
10105 30179
21647 11489
39354 41721
888 15833
9511 21800
30043 21264
8755 40827
23249 4463
8166 13606
47724 5977
43379 6370
17672 4096
46073 14836
2588 5388
49128 44215
22642 43087
26471 27396
29025 12060
9636 11075
25592 7085
27027 6971
2926 3429
21881 25589
28922 18284
40535 16729
17914 1969
28908 8350
11867 17113
44645 6918
2522 46992
19967 7875
27539 49617
43124 25306
20963 9445
37923 20930
6937 12360
25598 15457
46956 31115
18382 13116
3197 33094
16111 48022
3661 6913
19994 41357
8860 42135
3032 15094
4965 16758
29940 17613
3668 15751
29462 11345
21700 17683
20200 40584
24693 9216
630 41991
7186 31890
22132 9100
47436 28302
5490 12508
23636 8169
46686 49288
8848 22275
32356 42086
2752 5996
14156 18792
46469 21965
35389 39039
9556 1063
42314 38568
2269 33082
1382 12261
43104 6832
29931 46109
41755 25505
2572 43046
35923 30617
32085 30146
49320 19599
29792 12167
17870 10659
26802 48848
12530 8378
44795 37164
20905 9086
2915 30351
27664 13716
1164 45061
27540 6655
40183 49393
14069 13677
107 38909
43333 11126
21615 18612
33332 20663
35742 42056
36339 10224
30591 43382
43499 17449
13333 32208
519 31031
24577 28102
25655 29098
17052 44402
37230 37315
19872 40090
39333 35907
2634 25108
24150 46292
20125 43513
8454 27739
49142 8793
45577 37517
43804 13729
11469 17425
48997 10937
24839 5347
2591 35132
20429 29738
10790 2026
14465 3225
40648 852
23117 6206
25842 30196
25426 5494
11059 5932
4914 7672
29767 37231
18984 39794
1618 2344
35980 49004
4851 28253
21063 37302
31706 44110
43409 49615
3480 19043
45944 45690
15527 31260
39050 4697
16092 4507
2381 1991
48086 14965
18843 8329
15295 4679
47557 26886
25220 35999
42352 38733
36839 42436
9006 45387
20633 5637
37874 31833
43893 44638
22677 11866
49285 45505
3493 4659
48663 11725
42164 6474
44377 15328
12684 12064
7807 26313
