270585 237536
641285 681181
840583 951996
188197 583315
413864 469101
914727 1031
366390 591219
144885 807671
157902 936121
366473 482256
417136 501342
779308 432659
12389 491819
989009 360317
775869 970886
89817 616238
878176 994452
556177 197689
667365 810416
781078 129545
393002 802568
775506 177048
189422 23636
828024 754930
490887 740868
779607 63284
852832 930756
416567 803360
833614 454557
640448 66210
994095 495654
765954 535505
967474 341392
295357 138896
311367 970239
362877 989904
741838 679731
381805 317888
589552 485947
43751 866541
98563 32519
478423 382027
966336 844590
55063 486555
907864 228267
584591 684602
989832 472300
870412 494927
134412 530583
636691 129146
288765 983722
830500 727283
198627 949703
563813 318567
394172 13401
477406 349481
611418 752665
172494 677399
896617 259129
51132 301638
527356 389579
574133 256285
344908 152484
851074 309909
252859 753941
107050 755533
727052 431396
847961 617165
268603 652573
833511 105712
700381 230740
344473 669477
198241 544136
688905 189245
459605 649042
709265 273140
627934 352499
987029 956160
952764 159097
73413 773253
326758 584137
320964 859962
150595 662794
630418 325607
156078 979407
543281 39405
83255 680429
587452 294243
336392 507284
564958 274373
716224 721091
965386 286561
553369 140654
710956 777791
321494 792679
696380 476363
603227 53799
895262 724586
742945 421396
597129 188110
176359 333656
823184 51277
594236 844751
491898 159794
544449 175555
836050 39432
652453 513324
762618 756564
85283 705793
839637 483892
61683 26254
222395 660476
906824 943493
667595 497639
211681 773069
318170 314123
722383 810182
733216 32574
709015 993161
594216 399586
342629 568967
855416 551925
628919 958198
905722 456105
886176 208869
543800 940724
465066 181462
174288 762875
496757 136568
769566 653350
140294 394299
74756 174374
299550 318949
833654 689378
495756 109464
101717 958351
284407 355615
589760 399145
139959 139775
234655 414050
364665 194541
167524 642176
239990 219444
541183 937394
650132 241932
985701 936797
26067 415544
805870 710799
928851 995844
240770 877851
366648 126227
951072 765624
1393 535969
859317 402941
943694 812075
524601 586300
330621 427557
103529 769834
496614 330237
888474 189583
49116 647166
352269 661187
44923 411107
159729 901228
4167 371550
225015 314570
649207 34449
732348 743210
768938 577192
466292 960417
126497 940332
616498 39258
510998 925219
748724 417894
703463 565473
201237 872495
91528 659588
272166 875800
188808 639837
447640 310850
184679 923738
903775 771584
604829 836532
899093 408989
600135 725010
373677 787836
935368 320229
605407 223795
39089 586456
687215 340277
771856 166931
905379 689585
700742 738357
359607 11394
910441 155335
723234 387857
262053 223375
205858 577791
532342 742572
782508 815750
538122 971165
97230 102679
417708 572047
596418 989819
950477 516971
306798 463800
486509 489100
948539 879368
734470 115970
324012 685959
780674 925381
667114 776662
729651 603137
852143 295574
250454 537613
435756 151722
160723 151232
403871 955315
402741 672072
480383 213635
208532 751733
436613 656119
29551 834636
53914 58732
101314 410535
496115 620629
826711 472767
721872 603125
655169 795735
376990 411265
517106 213423
888405 17529
25905 7682
635558 543850
81395 916907
137634 707566
967169 305774
472371 760327
9922 752591
415584 429189
222708 351908
683616 351217
102567 555922
758976 370309
249455 248958
325262 958082
101865 870505
930904 640234
40656 182713
750910 499501
708853 331411
358154 970570
85185 46647
770907 836926
686911 356140
