358384 115038 443
738737 865135 525
417273 26457 449
258400 111310 443
581250 960928 525
554300 2034 470
905909 813094 525
838246 422841 525
932856 921327 476
36943 417632 449
763015 457056 509
113860 937285 525
916118 7997 525
214064 214517 293
505963 908359 525
795927 259198 509
499818 924802 525
268996 426064 449
345593 7873 443
760544 673846 504
781434 327452 509
964631 638075 525
22925 495374 449
146794 830242 509
939152 340283 525
434553 862487 525
923436 669979 525
538620 592554 452
112259 852751 525
604279 724650 509
716173 631919 504
471118 204690 449
988477 45470 525
253750 575828 470
920043 43333 525
94032 512467 470
412718 894225 525
315406 552343 470
342416 959512 525
817706 274458 509
995732 488275 525
180716 299510 443
510748 477132 426
231027 660159 509
741972 197794 509
518505 774023 509
105105 138455 354
975838 544399 525
319901 487611 449
4072 483231 449
734281 579788 509
883077 913253 476
567809 457652 470
508294 732797 509
323196 782802 509
644711 375756 509
562308 901092 525
323568 826325 509
871622 87595 525
884881 525091 525
533570 219532 470
866101 960556 507
110843 243343 443
738056 163314 509
798632 140118 509
80760 72738 351
337834 849642 525
710190 179337 509
125218 552700 470
632995 95359 509
564044 134362 470
584479 364197 470
565898 969091 525
983335 654739 525
599126 703323 509
392580 994436 525
432466 821966 509
954050 92485 525
353034 943389 525
628235 346844 509
312716 41655 443
258469 344426 407
552784 593370 434
699949 546895 509
148954 625349 470
379721 705723 509
309646 759800 509
104976 254202 443
406059 34181 443
891197 367207 525
134142 167941 383
389842 151041 443
81400 340203 443
721437 902038 525
6796 241742 443
582210 715980 509
967644 469552 525
890664 955421 507
677801 101131 509
136409 899745 525
749901 898404 525
157938 299185 443
348989 891552 525
617795 199428 470
997162 437555 525
67737 879597 525
633503 925013 525
432012 83173 449
18512 867981 525
134345 625782 470
685163 914830 525
493978 628061 509
680214 941328 525
250862 727790 509
792761 1178 509
201405 291529 443
457651 642109 509
692428 640667 442
722752 194873 509
918937 552513 525
399240 110936 443
412041 281251 449
156336 916245 525
971700 779382 525
871948 135967 525
766225 46651 509
651470 517112 509
523762 641783 509
161676 969921 525
578972 757690 509
63366 64836 330
153136 697796 509
904612 969448 507
419582 544504 470
512652 228092 470
338751 754452 509
962884 94152 525
540541 221081 470
464921 956441 525
709895 575978 509
416215 421201 387
647198 766836 504
853631 990290 507
655123 875006 525
170851 809392 509
48860 586120 470
620901 858478 525
528527 605659 452
478740 220080 449
324899 540103 470
874399 419498 525
940071 663910 525
425895 943226 525
913636 437715 525
670338 807759 504
192055 640631 509
212046 16994 383
983828 54810 525
960452 22126 525
457406 227958 449
874460 515691 525
650015 476125 509
804708 261593 509
597704 28464 470
396547 876514 525
827697 667217 504
853611 430558 525
140043 527695 470
111790 392525 443
343871 751296 509
134447 835725 509
428597 601098 470
561449 551203 421
871977 259891 525
710126 724536 411
265338 647812 509
273691 972248 525
154725 620587 470
779901 875696 525
741317 240472 509
932250 970321 507
322225 328895 384
425828 409933 449
944728 586951 525
861892 393638 525
455660 588704 470
270005 681975 509
84494 997448 525
56329 120926 354
299795 412562 449
127853 216399 386
378532 532682 470
23553 454609 449
629807 590931 509
80784 272887 443
462176 769294 509
579794 907515 525
888516 377544 525
75177 277021 443
172788 125555 383
541612 57598 470
538377 944299 525
264051 616881 470
501821 957635 525
455833 388321 449
112752 340432 443
308164 958066 525
657194 566622 509
281388 348743 441
652837 277320 509
820218 694812 504
877708 726281 525
833235 186433 509
822676 180969 509
123571 296335 443
745990 545293 509
577797 245290 470
430388 544663 470
776670 181378 509
903669 292217 525
673292 323716 509
2703 398349 443
118592 735260 509
958397 637066 525
258892 163692 443
462010 675035 509
667293 673451 367
432130 718391 509
47880 798728 509
288798 216282 443
776032 440767 509
337382 251057 407
409003 825341 509
815529 396432 509
12850 413919 449
572678 93095 470
132767 105029 354
820857 405678 509
684271 363600 509
661864 625343 509
441982 611727 470
870561 851535 419
240371 205311 443
900079 373721 525
80098 16543 351
648626 26018 509
183846 783941 509
705868 822111 468
863684 334253 525
385068 354423 423
