296765 229316 443
526184 3028 470
265480 857729 525
765893 331373 509
74720 461254 449
345931 563407 470
602620 327625 470
366479 753541 509
51080 111402 354
61011 912149 525
880040 644931 525
476575 288681 449
942555 572190 525
268247 121210 443
692956 378826 509
77083 281299 443
120671 670522 509
296974 161623 443
953376 47894 525
589456 648148 509
11011 354961 443
330222 576331 470
620933 287624 470
850771 3786 525
797463 782939 468
89654 963114 525
660258 980376 525
565413 804118 509
223256 282817 443
10031 182044 383
114683 281536 443
312565 316828 353
673248 733346 504
648903 402147 509
961164 466485 525
41845 530409 470
526396 534659 377
270256 690684 509
981749 726167 525
855602 430400 525
94883 491480 449
483457 237705 449
690197 587700 509
590793 385122 470
819664 840754 525
238839 416973 449
29901 48788 324
398255 94239 443
453321 549238 470
991063 271664 525
636053 93950 509
646721 31668 509
626360 981487 525
340159 282588 389
564735 478198 470
314010 173583 443
726362 606360 509
274395 662579 509
733018 689074 504
836930 502054 509
339011 260802 407
438864 128020 449
269975 391692 441
26331 369886 443
69618 746105 509
944626 268246 525
105961 83398 341
904549 65686 525
731334 449549 509
287119 680417 509
2014 967994 525
898424 855761 445
505828 923653 525
37352 506006 449
255414 80813 443
261188 242721 363
303450 216420 443
312303 540161 470
70239 22157 340
111133 24961 354
721769 312116 509
187973 70429 383
712582 513288 509
326152 768368 509
90936 541985 470
524004 158923 470
177327 718857 509
61166 652283 509
635028 269932 509
121090 320725 443
846902 294343 525
685356 931302 525
932113 183106 525
768151 324609 509
290768 882389 525
127313 246385 443
37586 810621 509
535693 766849 509
731472 686363 504
591067 239494 470
708503 337447 509
612309 500764 470
450941 93845 449
45158 280720 443
168725 610378 470
4757 1828 238
795999 919189 525
425843 313317 449
668797 474014 509
439902 59465 449
523445 834906 509
948126 196222 525
520160 324441 470
679806 447888 509
215089 989895 525
772847 304848 509
792357 90332 509
493708 816372 509
99467 829580 509
787546 296493 509
468545 239301 449
621697 386820 470
160428 184244 365
998224 272179 525
382972 857782 525
243597 80939 443
984152 951293 458
925446 861012 476
542200 806951 509
415324 79948 449
897230 597028 525
579472 828537 509
818400 308575 509
790258 505139 509
700755 530890 509
63188 750083 509
301280 535861 470
974096 596896 525
256701 155043 443
570263 364864 470
817917 686015 504
218863 247836 443
882209 681580 525
268074 644174 509
285624 263965 407
823707 448666 509
677970 271716 509
107125 538777 470
321774 249801 407
366441 159686 443
737510 440641 509
326982 153286 443
737047 571501 509
686780 955879 525
503014 2759 449
122954 852689 525
360098 901231 525
692136 405009 509
2487 683304 509
33395 266212 443
491301 29585 449
442802 64550 449
654600 281729 509
337937 870367 525
227048 456506 449
447250 404215 449
847605 334496 525
415267 877178 525
925874 168648 525
33955 803714 509
784968 876689 525
675291 622240 509
446246 299255 449
236733 90455 443
384335 944816 525
326619 286091 389
251047 858575 525
286556 569159 470
841145 44603 525
502955 941817 525
660372 691012 442
440251 354337 449
813140 730973 468
219163 626941 509
798678 567629 509
480986 889015 525
365883 213760 443
36161 814207 509
495752 939516 525
863048 83223 525
11880 991599 525
9586 116588 354
516007 108327 470
686581 756929 504
558099 673284 509
571056 412119 470
627761 941986 525
946412 312583 525
696869 241362 509
527017 574295 452
683851 661668 442
910752 36629 525
18143 41937 324
724 832653 509
668781 873141 525
254037 237398 368
792118 382854 509
45660 530343 470
322659 991674 525
421822 204054 449
188311 270936 443
32435 897754 525
526094 316507 470
199485 232166 443
954162 2675 525
55460 600147 470
205708 550082 470
926641 817119 525
666019 408768 509
