145355 787984
995542 145986
271760 243408
998888 452366
613529 276250
464792 129345
180096 174465
97688 651995
108560 572050
158818 582804
458685 474644
967482 269646
671410 298612
416772 710035
925686 301721
669293 389675
883884 495156
743182 95564
946754 484863
865751 271226
826787 84912
815450 956752
485693 844788
233302 226194
699367 819880
39405 315816
163651 40067
745609 325233
972157 172544
378792 465339
614825 525392
834568 922017
716107 988346
336118 112898
580202 72720
756889 289568
618490 467575
660663 626561
649408 708312
971062 973157
975554 642747
486736 482701
478143 281610
798506 834074
87724 228973
697622 108855
189573 976137
803077 862868
397431 974716
830279 741951
891306 360698
77535 9219
553369 89132
620301 876237
865585 934368
315090 850784
288605 624192
906795 109161
111583 928010
150853 514559
858453 271487
776591 824578
681069 790115
288343 102065
524897 729619
216528 991737
105735 333753
327228 850617
956078 416821
736290 503163
269704 145525
804507 498708
675572 96448
2011 788674
393259 284092
761641 652963
347654 229151
104989 446029
27137 49289
456319 377251
815710 112214
692185 997114
72975 50627
265484 552013
424282 852885
483527 100395
291652 633791
339242 989993
865621 742848
372814 523623
462045 910288
948889 890029
598160 994274
844458 919249
609727 916361
219346 635302
899871 498799
501130 494334
83974 1671
488617 724567
301501 14246
785869 936097
404921 576555
992194 108532
92118 264206
630221 945691
932221 908735
49709 561469
535132 888693
741969 295464
981587 155857
960128 720123
248284 553993
325824 38217
794948 317961
248434 352126
615408 57320
818362 837381
650131 27567
609474 433945
365369 675281
964275 300850
654180 874036
280724 869162
420902 812554
601447 116653
620894 111183
963801 644699
257655 883014
641247 970644
652384 227697
41768 895684
45111 752376
417871 280001
580775 69188
670948 826952
47268 187186
274352 655803
296049 751752
815412 243716
2779 365695
126201 380530
835312 514442
657370 789493
598528 723311
608092 613233
826731 85508
377453 824669
450276 473332
442794 325579
542345 528459
481695 526644
845171 723263
418884 413213
982284 151928
798161 720625
883341 508564
983821 570666
512771 189667
889036 663694
80909 537997
404104 185614
748676 197038
964611 680539
800067 702272
302398 596046
977231 827291
940735 475931
563710 836062
185595 240858
941447 72413
359899 87663
571082 17643
802550 234968
208554 466215
248532 102260
868697 778791
559233 955882
774428 777374
66668 586242
949885 398591
262274 559470
834470 384230
43181 366287
69453 287166
433483 944298
651259 219277
90929 838821
580998 312793
112957 183418
280488 92125
968260 200072
157576 327070
668933 672865
6587 987487
74741 35968
44497 689230
603298 721945
261760 287041
194664 455082
673291 49542
650955 168781
465355 895764
189147 838616
660133 185386
2365 163815
129565 612484
642619 933760
998428 691413
866287 468487
942090 510376
502367 519298
470566 95376
701399 5488
955507 443192
888561 59743
69662 307969
775583 983412
125828 881205
88884 146164
345163 733747
844553 216084
257909 650139
419574 803862
102044 69653
998103 103244
620106 855494
343622 322327
744179 753793
897901 914510
163806 280702
954536 207271
430499 834913
997724 313645
294254 627037
555470 565488
144090 480140
517883 799228
537979 156171
169392 519775
512949 570509
541619 392212
911844 56493
800768 779941
444685 85938
357679 346362
366573 919599
297816 513919
181294 951367
728599 356625
